0.000317,0.000317
0.000156,0.000473
0.000000,0.000473
0.000000,0.000473
0.000000,0.000473
0.000000,0.000473
0.000000,0.000473
0.000000,0.000473
0.000000,0.000473
0.000000,0.000473
0.000000,0.000473
0.000000,0.000473
0.000000,0.000473
0.000000,0.000473
0.000054,0.000527
0.000097,0.000624
0.000112,0.000736
0.000160,0.000896
