19.776721,19.776721
29.832909,49.609631
29.711423,79.321054
29.840057,109.161111
30.651029,139.812141
29.894422,169.706563
29.868851,199.575414
30.823048,230.398462
29.650067,260.048529
30.247814,290.296343
29.935191,320.231534
30.131027,350.362561
29.232045,379.594605
30.949068,410.543673
30.587022,441.130695
31.094222,472.224917
31.014605,503.239522
30.869932,534.109454
30.826425,564.935880
30.583027,595.518907
30.927399,626.446305
29.700739,656.147044
30.408536,686.555580
29.531495,716.087075
30.651706,746.738781
30.987526,777.726306
30.017680,807.743987
30.672313,838.416300
30.904069,869.320369
29.344801,898.665169
29.799839,928.465008
28.704428,957.169436
30.461251,987.630687
30.720558,1018.351244
30.194481,1048.545726
30.898068,1079.443794
30.322528,1109.766322
29.947863,1139.714184
31.034505,1170.748689
28.728417,1199.477106
30.019534,1229.496641
29.019156,1258.515797
30.782954,1289.298750
26.995403,1316.294154
27.047437,1343.341590
26.882630,1370.224220
26.960182,1397.184402
25.460404,1422.644807
22.867363,1445.512170
22.416943,1467.929112
19.573031,1487.502144
17.678480,1505.180624
13.220116,1518.400739
12.019536,1530.420275
13.191178,1543.611453
12.625954,1556.237407
10.378894,1566.616301
8.242296,1574.858597
9.816753,1584.675350
10.322928,1594.998279
9.671145,1604.669424
9.272151,1613.941575
8.610315,1622.551890
10.604791,1633.156681
9.087329,1642.244010
10.192989,1652.436999
9.802641,1662.239640
10.234609,1672.474248
10.256187,1682.730435
11.747243,1694.477678
9.365580,1703.843258
8.832484,1712.675742
9.541817,1722.217558
7.868942,1730.086500
9.666705,1739.753205
8.827914,1748.581119
9.417960,1757.999080
7.535267,1765.534346
4.964082,1770.498428
5.757197,1776.255625
5.954397,1782.210022
4.585371,1786.795393
3.326334,1790.121727
30.761597,1820.883324
0.000000,1820.883324
