0.302769,0.302769
0.448887,0.751656
0.446024,1.197680
0.442045,1.639725
0.448914,2.088639
0.454567,2.543206
0.456112,2.999318
0.454314,3.453633
0.455844,3.909477
0.453810,4.363288
0.453475,4.816763
0.455717,5.272480
0.455705,5.728185
0.457672,6.185857
0.457010,6.642868
0.453365,7.096233
0.454657,7.550890
0.452331,8.003221
0.448799,8.452021
0.437978,8.889999
0.434344,9.324342
0.420903,9.745245
0.422380,10.167625
0.443517,10.611142
0.435491,11.046633
0.419080,11.465712
0.381570,11.847282
0.384522,12.231804
0.431054,12.662859
0.431080,13.093938
0.445931,13.539869
0.450674,13.990544
0.452307,14.442851
0.453938,14.896789
0.456203,15.352992
0.455845,15.808837
0.456372,16.265209
0.451738,16.716947
0.453288,17.170236
0.452937,17.623173
0.454782,18.077955
0.454788,18.532743
0.453099,18.985842
0.442888,19.428730
0.427519,19.856249
0.392960,20.249209
0.388980,20.638189
0.389587,21.027777
0.382516,21.410293
0.364476,21.774768
0.338413,22.113182
0.313641,22.426822
0.293960,22.720782
0.239757,22.960539
0.229454,23.189993
0.210346,23.400338
0.184975,23.585313
0.194214,23.779527
0.190422,23.969949
0.190549,24.160498
0.167212,24.327710
0.167191,24.494901
0.168724,24.663625
0.169988,24.833613
0.170507,25.004120
0.169553,25.173673
0.170063,25.343736
0.171426,25.515162
0.170524,25.685686
0.170636,25.856322
0.170659,26.026981
0.170152,26.197133
0.169375,26.366508
0.165894,26.532402
0.166919,26.699321
0.166442,26.865763
0.168351,27.034114
0.165008,27.199122
0.163000,27.362122
0.161564,27.523686
0.145316,27.669002
0.124898,27.793900
0.110205,27.904105
0.110460,28.014565
0.097241,28.111806
0.070676,28.182482
0.083320,28.265802
0.291291,28.557093
0.140398,28.697491
