3.491741,3.491741
26.123767,29.615508
41.807417,71.422925
43.754543,115.177468
43.304632,158.482100
43.230369,201.712469
35.356985,237.069454
36.536599,273.606053
22.706761,296.312814
14.858763,311.171578
10.834760,322.006338
4.849451,326.855788
2.910462,329.766250
42.849731,372.615982
26.068533,398.684515
35.300704,433.985219
35.214386,469.199606
15.819840,485.019446
0.000000,485.019446
