3.902920,3.902920
10.822730,14.725650
15.310651,30.036301
15.489085,45.525386
15.988490,61.513877
15.164373,76.678250
15.436877,92.115128
15.642165,107.757292
15.695500,123.452792
15.091302,138.544094
15.446442,153.990536
15.765053,169.755589
16.179302,185.934892
15.504631,201.439523
15.422235,216.861758
15.663994,232.525752
16.080618,248.606369
15.028380,263.634750
15.620090,279.254840
15.333611,294.588450
12.338157,306.926607
11.160181,318.086788
6.340513,324.427302
6.434069,330.861370
4.776275,335.637646
15.819948,351.457594
15.598137,367.055731
15.142731,382.198462
0.000000,382.198462
