0.337776,0.337776
0.379580,0.717356
0.334763,1.052119
0.378336,1.430456
0.376990,1.807446
0.379464,2.186910
0.384352,2.571262
0.385034,2.956296
0.384432,3.340728
0.383716,3.724444
0.384878,4.109322
0.384705,4.494027
0.384898,4.878925
0.386283,5.265208
0.385776,5.650984
0.387196,6.038180
0.384141,6.422321
0.391763,6.814084
0.389097,7.203181
0.390902,7.594082
0.389276,7.983359
0.390353,8.373711
0.380142,8.753853
0.364842,9.118695
0.414114,9.532809
0.396839,9.929648
0.387063,10.316711
0.429392,10.746104
0.400501,11.146604
0.442686,11.589291
0.407932,11.997222
0.396867,12.394089
0.413229,12.807318
0.395860,13.203178
0.479965,13.683143
0.436640,14.119783
0.436904,14.556687
0.435274,14.991961
0.433331,15.425292
0.416028,15.841320
0.423264,16.264585
0.358332,16.622916
0.326017,16.948933
0.277593,17.226526
0.222758,17.449285
0.227162,17.676447
0.227823,17.904269
0.226206,18.130475
0.214883,18.345358
0.212495,18.557854
0.226938,18.784792
0.222166,19.006958
0.218025,19.224983
0.220335,19.445318
0.223129,19.668447
0.224987,19.893434
0.225121,20.118555
0.222803,20.341358
0.200252,20.541610
0.156042,20.697652
0.114375,20.812027
0.114155,20.926182
0.113866,21.040048
0.114440,21.154488
0.110160,21.264647
0.111433,21.376080
0.112380,21.488461
0.113010,21.601471
0.113331,21.714802
0.110218,21.825019
0.109288,21.934307
0.090453,22.024760
0.068934,22.093695
0.055935,22.149629
0.055630,22.205259
0.055534,22.260793
0.042435,22.303229
0.162937,22.466166
0.385054,22.851221
0.258609,23.109830
